{
	"segments": {
		"left": [
			{
				"function": "powerline.segments.shell.mode"
			},
			{
				"function": "powerline.segments.common.net.hostname",
				"args": {
				  "only_if_ssh": true
				},
				"priority": 10
			},
			{
				"function": "powerline.segments.common.env.user",
				"args": {
				  "hide_user": "minescoviciu"
				},
				"priority": 30
			},
			{
				"function": "powerline.segments.common.env.virtualenv",
				"priority": 50
			},
			{
				"function": "powerline.segments.shell.cwd",
				"priority": 10
			},
			{
				"function": "powerline_gitstatus.gitstatus",
				"priority": 40
			},
			{
				"function": "powerline.segments.shell.last_status",
				"priority": 10
			}
		],
		"right": [
			{
				"function": "powerline.segments.shell.last_pipe_status",
				"priority": 10
			},
			{
				"function": "powerline.segments.common.vcs.stash",
				"priority": 50
			},
			{
				"function": "powerline.segments.common.vcs.branch",
				"priority": 40
			}
		]
	}
}
